firmware/scripts/.Xil/Vivado-21057-lt2/hw_ila_data_7/zip_work/waveform.vcd
$date
        2019-May-29 14:48:13
$end
$version
        Vivado v2018.3 (64-bit)
$end
$timescale
        1ps
$end
$scope module dut $end
$var reg 1 " fifoAutoDC_ren $end
$var reg 16 # fifoAutoDC_dout [15:0] $end
$var reg 5 3 m_axis_tid [4:0] $end
$var reg 1 8 _TRIGGER $end
$var reg 1 9 _WINDOW $end
$var reg 1 : _GAP $end
$upscope $end
$enddefinitions $end
#0
$dumpvars
0"
b101111110 #
b11000 3
08
19
0:
$end
#92
b11 3
#196
b10000 3
#300
b11000 3
#404
b11 3
#508
b10000 3
#512
1"
18
#513
b101011011 #
#514
b101010100 #
#515
b101010000 #
#516
b101001101 #
#517
b101000101 #
#519
b100100011 #
#520
b100011100 #
#521
b100001111 #
#522
b11111001 #
#523
b11110110 #
#524
b11101010 #
#525
b11011000 #
#526
b11100010 #
#527
b10111101 #
#528
b10111000 #
#529
b11000000 #
#530
b10011001 #
#531
b10110000 #
#532
b10001110 #
#533
b10000110 #
#534
b1110011 #
#535
b1101101 #
#536
b1100100 #
#537
b1010101 #
#538
b1010011 #
#539
b1000111 #
#540
b111011 #
#541
b11111 #
#542
b1111111111111111 #
#543
b1001 #
#544
b1111111111111011 #
#545
b1111111111101011 #
#546
b1111111111101111 #
#547
b1111111110110111 #
#548
b1111111110110110 #
#549
b1111111110110000 #
#550
b1111111110011011 #
#551
b1111111110110111 #
#552
b1111111110001101 #
#553
b1111111101111100 #
#554
b1111111110000000 #
#555
b1111111101011001 #
#556
b1111111101010110 #
#557
b1111111101000010 #
#558
b1111111101000000 #
#559
b1111111100110000 #
#560
b1111111100101000 #
#561
b1111111100011011 #
#562
b1111111100010001 #
#563
b1111111100001111 #
#564
b1111111011110111 #
#565
b1111111011111110 #
#566
b1111111011011111 #
#567
b1111111011110101 #
#568
b1111111011100000 #
#569
b1111111011101011 #
#570
b1111111011011110 #
#571
b1111111010110011 #
#572
b1111111011001010 #
#573
b1111111011001011 #
#574
b1111111010101110 #
#575
b1111111010100110 #
#576
b1111111010100101 #
#577
b1111111010100111 #
#579
b1111111010001011 #
#580
b1111111010011001 #
#582
b1111111010001101 #
#583
b1111111010000111 #
#584
b1111111001111111 #
#585
b1111111010000000 #
#586
b1111111001110010 #
#587
b1111111001110101 #
#589
b1111111001101110 #
#590
b1111111001101101 #
#591
b1111111001100111 #
#592
b1111111001110111 #
#593
b1111111001100000 #
#594
b1111111001101011 #
#595
b1111111001100001 #
#596
b1111111001101100 #
#597
b1111111001100011 #
#598
b1111111001100110 #
#599
b1111111001100010 #
#600
b1111111001100011 #
#601
b1111111001100100 #
#602
b1111111001010100 #
#603
b1111111001100100 #
#604
b1111111001011001 #
#605
b1111111001100100 #
#606
b1111111001010111 #
#607
b1111111001100110 #
#608
b1111111001110000 #
#609
b1111111001100000 #
#610
b1111111001101100 #
#611
b1111111001011101 #
#612
b1111111001101001 #
b11000 3
#613
b1111111001111110 #
#614
b1111111001110000 #
#615
b1111111001101111 #
#616
b1111111001101100 #
#617
b1111111010000000 #
#618
b1111111001111011 #
#620
b1111111010000001 #
#622
b1111111010101101 #
#623
b1111111010010111 #
#624
b1111111010011011 #
#625
b1111111010010011 #
#626
b1111111010100100 #
#627
b1111111010100011 #
#628
b1111111010111101 #
#629
b1111111011000011 #
#630
b1111111010111001 #
#631
b1111111010111100 #
#632
b1111111011011010 #
#633
b1111111011000011 #
#634
b1111111011100000 #
#635
b1111111011110111 #
#636
b1111111011001011 #
#637
b1111111011100100 #
#638
b1111111011101101 #
#639
b1111111011110000 #
#640
b1111111011100011 #
#641
b1111111011110011 #
#642
b1111111100001110 #
#643
b1111111100001011 #
#644
b1111111100010011 #
#645
b1111111100110111 #
#646
b1111111100001100 #
#647
b1111111100100001 #
#648
b1111111100101011 #
#649
b1111111100111011 #
#650
b1111111100111101 #
#651
b1111111101010101 #
#652
b1111111101011011 #
#653
b1111111101101101 #
#654
b1111111101100111 #
#655
b1111111101111001 #
#657
b1111111110001001 #
#658
b1111111110001011 #
#659
b1111111110100010 #
#660
b1111111110110100 #
#661
b1111111110110000 #
#662
b1111111111001001 #
#663
b1111111111010001 #
#664
b1111111111011111 #
#665
b1111111111101001 #
#666
b1111111111100011 #
#667
b1111 #
#668
b1111111111111001 #
#669
b11 #
#670
b10101 #
#671
b101011 #
#672
b100101 #
#673
b111100 #
#674
b1001011 #
#675
b1101000 #
#676
b1011111 #
#677
b1101000 #
#678
b1100100 #
#679
b10000011 #
#680
b10001010 #
#681
b10010011 #
#682
b10101011 #
#683
b11000000 #
#684
b11100011 #
#685
b11011111 #
#686
b11011011 #
#687
b11101111 #
#688
b100000001 #
#689
b100000101 #
#690
b100010101 #
#691
b100110111 #
#692
b100101100 #
#693
b101001001 #
#694
b101000000 #
#695
b101101101 #
#696
b101101011 #
#697
b110000011 #
#698
b110001111 #
#699
b110000111 #
#700
b110111000 #
#701
b111001001 #
#702
b110111101 #
#703
b111011000 #
#704
b111100100 #
#705
b1000000101 #
#706
b111111011 #
#707
b1000100000 #
#708
b1000010010 #
#709
b1000011111 #
#710
b1000111011 #
#711
b1000110110 #
#712
b1000110011 #
#713
b1001011001 #
#714
b1001011111 #
#715
b1001011001 #
#716
b1010000001 #
b11 3
#717
b1001111011 #
#718
b1010000111 #
#719
b1010001111 #
#720
b1010011011 #
#721
b1010100010 #
#723
b1010011011 #
#724
b1010100100 #
#725
b1010111101 #
#726
b1011000011 #
#727
b1010111011 #
#728
b1011011100 #
#729
b1011010000 #
#730
b1011101000 #
#731
b1011100111 #
#732
b1011110011 #
#733
b1011110100 #
#734
b1011101101 #
#735
b1100001100 #
#736
b1100001011 #
#737
b1011110001 #
#738
b1100001101 #
#739
b1100000111 #
#740
b1100001111 #
#741
b1100011101 #
#742
b1100001011 #
#743
b1100011101 #
#745
b1100001111 #
#746
b1100011101 #
#747
b1100100011 #
#748
b1100101111 #
#749
b1100111111 #
#750
b1100111011 #
#751
b1100111000 #
#752
b1100011010 #
#753
b1101000011 #
#754
b1100100101 #
#755
b1100101111 #
#756
b1101010001 #
#757
b1100111001 #
#758
b1101011111 #
#759
b1101010000 #
#760
b1100100101 #
#761
b1101000101 #
#762
b1101000111 #
#763
b1101000100 #
#764
b1100111111 #
#765
b1100110111 #
#766
b1101010100 #
#767
b1101010010 #
#768
b1101001101 #
#769
b1101000011 #
#770
b1100101110 #
#771
b1100101111 #
#772
b1100111111 #
#773
b1100101001 #
#774
b1100110011 #
#775
b1100110110 #
#776
b1100110000 #
#777
b1100101010 #
#778
b1101000001 #
#779
b1100011111 #
#780
b1100101001 #
#781
b1100011011 #
#782
b1100101001 #
#783
b1100011111 #
#784
b1100100011 #
#785
b1100011111 #
#786
b1100011001 #
#787
b1100010101 #
#788
b1100001100 #
#789
b1100011000 #
#790
b1100010011 #
#791
b1100011111 #
#792
b1100000111 #
#793
b1100000001 #
#794
b1100001111 #
#795
b1011101001 #
#796
b1011111001 #
#797
b1011111011 #
#798
b1011101011 #
#799
b1011100111 #
#800
b1011100101 #
#801
b1011101001 #
#802
b1011100111 #
#803
b1011001001 #
#804
b1011011101 #
#805
b1011011011 #
#806
b1011000100 #
#807
b1010101010 #
#808
b1010110111 #
#809
b1010111011 #
#810
b1010101011 #
#811
b1010100001 #
#812
b1010100110 #
#813
b1010010100 #
#814
b1010000100 #
#815
b1001111001 #
#816
b1010001111 #
#817
b1010000011 #
#818
b1001110000 #
#819
b1001000111 #
#820
b1001011101 #
b10000 3
#821
b1001010001 #
#822
b1001010111 #
#823
b1001010010 #
#824
b1001000001 #
#825
b1000111001 #
#826
b1001001000 #
#827
b1000110011 #
#828
b1001001001 #
#829
b1000011111 #
#830
b1000100001 #
#831
b1000001111 #
#832
b1000001001 #
#833
b111101011 #
#834
b111011001 #
#835
b111100111 #
#836
b111100001 #
#837
b111100010 #
#838
b111001101 #
#839
b110110111 #
#840
b110101111 #
#841
b110101011 #
#842
b110011100 #
#843
b110000011 #
#844
b110010000 #
#846
b101111111 #
#848
b101010001 #
#849
b101011011 #
#850
b101010001 #
#851
b101010110 #
#852
b100101111 #
#853
b100111000 #
#854
b100110000 #
#855
b100010111 #
#856
b100000111 #
#857
b100010011 #
#858
b100001101 #
#859
b11110111 #
#860
b11100110 #
#861
b11101011 #
#862
b11011111 #
#863
b11010100 #
#864
b10111101 #
#865
b10110011 #
#866
b10100111 #
#867
b10010110 #
#868
b10001011 #
#869
b1110100 #
#870
b1111110 #
#871
b1101111 #
#872
b1000011 #
#873
b101111 #
#874
b111101 #
#875
b100011 #
#876
b100101 #
#877
b10011 #
#878
b1010 #
#879
b11 #
#880
b1111111111101100 #
#881
b1111111111010010 #
#882
b1111111111100000 #
#883
b1111111111010011 #
#884
b1111111110111001 #
#886
b1111111110100001 #
#887
b1111111110010111 #
#888
b1111111110001011 #
#889
b1111111110000001 #
#890
b1111111101011011 #
#891
b1111111101011111 #
#892
b1111111101011110 #
#893
b1111111101010111 #
#894
b1111111101010001 #
#895
b1111111100101001 #
#897
b1111111100100111 #
#898
b1111111100000100 #
#899
b1111111100001111 #
#900
b1111111011110000 #
#901
b1111111011111010 #
#902
b1111111011111000 #
#903
b1111111011010111 #
#904
b1111111011011001 #
#905
b1111111011010000 #
#906
b1111111011000111 #
#907
b1111111010110111 #
#908
b1111111010100100 #
#909
b1111111010101010 #
#910
b1111111010100111 #
#911
b1111111010101101 #
#912
b1111111010100100 #
#913
b1111111010010011 #
#914
b1111111010001100 #
#915
b1111111010011100 #
#916
b1111111001110100 #
#917
b1111111001110001 #
#918
b1111111001111110 #
#919
b1111111010001011 #
#920
b1111111001110011 #
#921
b1111111001110001 #
#922
b1111111001100100 #
#923
b1111111001010011 #
#924
b1111111001110110 #
b11000 3
#925
b1111111001011111 #
#926
b1111111001100111 #
#927
b1111111001001101 #
#928
b1111111001101101 #
#929
b1111111001010100 #
#930
b1111111001001001 #
#931
b1111111001011011 #
#932
b1111111001010000 #
#933
b1111111001001001 #
#934
b1111111001010100 #
#935
b1111111001001000 #
#936
b1111111000111001 #
#937
b1111111001010010 #
#938
b1111111001010101 #
#939
b1111111001001101 #
#940
b1111111001010111 #
#941
b1111111001001110 #
#942
b1111111001000010 #
#943
b1111111001100100 #
#944
b1111111001001101 #
#945
b1111111001010011 #
#946
b1111111001011011 #
#947
b1111111001000010 #
#948
b1111111001010010 #
#949
b1111111001010110 #
#950
b1111111001010001 #
#951
b1111111001100111 #
#952
b1111111001100001 #
#953
b1111111001011110 #
#954
b1111111001110101 #
#955
b1111111001111111 #
#956
b1111111010000100 #
#957
b1111111001110001 #
#958
b1111111010000000 #
#959
b1111111001111111 #
#960
b1111111001110001 #
#961
b1111111001110111 #
#962
b1111111010011111 #
#963
b1111111010010010 #
#964
b1111111010011001 #
#965
b1111111010101010 #
#966
b1111111010110100 #
#967
b1111111010101011 #
#968
b1111111010101100 #
#969
b1111111010100111 #
#970
b1111111011001011 #
#971
b1111111010111000 #
#972
b1111111011010011 #
#973
b1111111010111001 #
#974
b1111111011011001 #
#975
b1111111011100010 #
#976
b1111111011101001 #
#977
b1111111011100001 #
#978
b1111111011101011 #
#979
b1111111011101110 #
#980
b1111111011110000 #
#981
b1111111011111001 #
#982
b1111111100101000 #
#983
b1111111011111101 #
#984
b1111111100100001 #
#985
b1111111100010111 #
#986
b1111111100111100 #
#987
b1111111100101011 #
#988
b1111111100110011 #
#989
b1111111101000001 #
#990
b1111111101011101 #
#991
b1111111101100011 #
#992
b1111111101100111 #
#993
b1111111101011001 #
#994
b1111111101111111 #
#995
b1111111101111011 #
#996
b1111111101111001 #
#997
b1111111110011011 #
#998
b1111111110011111 #
#999
b1111111110111101 #
#1000
b1111111110101011 #
#1001
b1111111111011100 #
#1002
b1111111111001100 #
#1003
b1111111111010000 #
#1004
b1111111111011111 #
#1005
b1111111111100100 #
#1006
b1111111111101100 #
#1007
b101 #
#1008
b10001 #
#1010
b11011 #
#1011
b111000 #
#1012
b111001 #
#1013
b1010100 #
#1014
b1001000 #
#1015
b1011111 #
#1016
b1011011 #
#1017
b10010001 #
#1018
b10010111 #
#1019
b10101000 #
#1021
b10100011 #
#1022
b10100110 #
#1023
b11010111 #
